^C:\USERS\WINCUCK\DOCUMENTS\MALONALA\MALONALA\MALONALA\DEBUG\MAIN.OBJ|C:\USERS\WINCUCK\DOCUMENTS\MALONALA\MALONALA\MALONALA\DEBUG\WINDOW.OBJ|C:\USERS\WINCUCK\DOCUMENTS\MALONALA\MALONALA\MALONALA\DEBUG\WORLD.OBJ
C:\USERS\WINCUCK\DOCUMENTS\MALONALA\MALONALA\DEBUG\MALONALA.ILK
C:\USERS\WINCUCK\DOCUMENTS\MALONALA\MALONALA\DEBUG\MALONALA.EXE
C:\USERS\WINCUCK\DOCUMENTS\MALONALA\MALONALA\DEBUG\MALONALA.PDB
